[
{ "id":"11026516","ime":"Ajdovščina","tip":"N"},
{ "id":"11026524","ime":"Beltinci","tip":"N"},
{ "id":"11026532","ime":"Bled","tip":"N"},
{ "id":"11026559","ime":"Bohinj","tip":"N"},
{ "id":"11026567","ime":"Borovnica","tip":"N"},
{ "id":"11026575","ime":"Bovec","tip":"N"},
{ "id":"11026583","ime":"Brda","tip":"N"},
{ "id":"11026591","ime":"Brezovica","tip":"N"},
{ "id":"11026605","ime":"Brežice","tip":"N"},
{ "id":"11026613","ime":"Tišina","tip":"N"},
{ "id":"11026621","ime":"Celje","tip":"D"},
{ "id":"11026630","ime":"Cerklje na Gorenjskem","tip":"N"},
{ "id":"11026648","ime":"Cerknica","tip":"N"},
{ "id":"11026656","ime":"Cerkno","tip":"N"},
{ "id":"11026664","ime":"Črenšovci","tip":"N"},
{ "id":"11026672","ime":"Črna na Koroškem","tip":"N"},
{ "id":"11026699","ime":"Črnomelj","tip":"N"},
{ "id":"11026702","ime":"Destrnik","tip":"N"},
{ "id":"11026729","ime":"Divača","tip":"N"},
{ "id":"11026737","ime":"Dobrepolje","tip":"N"},
{ "id":"11026745","ime":"Dobrova-Polhov Gradec","tip":"N"},
{ "id":"11026753","ime":"Dol pri Ljubljani","tip":"N"},
{ "id":"11026761","ime":"Domžale","tip":"N"},
{ "id":"11026770","ime":"Dornava","tip":"N"},
{ "id":"11026788","ime":"Dravograd","tip":"N"},
{ "id":"11026796","ime":"Duplek","tip":"N"},
{ "id":"11026800","ime":"Gorenja vas-Poljane","tip":"N"},
{ "id":"11026818","ime":"Gorišnica","tip":"N"},
{ "id":"11026826","ime":"Gornja Radgona","tip":"N"},
{ "id":"11026834","ime":"Gornji Grad","tip":"N"},
{ "id":"11026842","ime":"Gornji Petrovci","tip":"N"},
{ "id":"11026869","ime":"Grosuplje","tip":"N"},
{ "id":"11026877","ime":"Šalovci","tip":"N"},
{ "id":"11026885","ime":"Hrastnik","tip":"N"},
{ "id":"11026893","ime":"Idrija","tip":"N"},
{ "id":"11026907","ime":"Ig","tip":"N"},
{ "id":"11026915","ime":"Ivančna Gorica","tip":"N"},
{ "id":"11026923","ime":"Izola","tip":"N"},
{ "id":"11026931","ime":"Juršinci","tip":"N"},
{ "id":"11026940","ime":"Kanal","tip":"N"},
{ "id":"11026958","ime":"Kobarid","tip":"N"},
{ "id":"11026966","ime":"Kočevje","tip":"N"},
{ "id":"11026974","ime":"Kozje","tip":"N"},
{ "id":"11026982","ime":"Krško","tip":"N"},
{ "id":"11027008","ime":"Kungota","tip":"N"},
{ "id":"11027016","ime":"Lenart","tip":"N"},
{ "id":"11027024","ime":"Litija","tip":"N"},
{ "id":"11027032","ime":"Ljubno","tip":"N"},
{ "id":"11027059","ime":"Logatec","tip":"N"},
{ "id":"11027067","ime":"Loški Potok","tip":"N"},
{ "id":"11027075","ime":"Luče","tip":"N"},
{ "id":"11027083","ime":"Majšperk","tip":"N"},
{ "id":"11027091","ime":"Mengeš","tip":"N"},
{ "id":"11027105","ime":"Mežica","tip":"N"},
{ "id":"11027113","ime":"Mislinja","tip":"N"},
{ "id":"11027121","ime":"Moravče","tip":"N"},
{ "id":"11027130","ime":"Moravske Toplice","tip":"N"},
{ "id":"11027148","ime":"Murska Sobota","tip":"D"},
{ "id":"11027156","ime":"Nova Gorica","tip":"D"},
{ "id":"11027164","ime":"Odranci","tip":"N"},
{ "id":"11027172","ime":"Ormož","tip":"N"},
{ "id":"11027199","ime":"Pesnica","tip":"N"},
{ "id":"11027202","ime":"Podčetrtek","tip":"N"},
{ "id":"11027229","ime":"Postojna","tip":"N"},
{ "id":"11027237","ime":"Preddvor","tip":"N"},
{ "id":"11027245","ime":"Rače-Fram","tip":"N"},
{ "id":"11027253","ime":"Radenci","tip":"N"},
{ "id":"11027261","ime":"Radlje ob Dravi","tip":"N"},
{ "id":"11027270","ime":"Radovljica","tip":"N"},
{ "id":"11027288","ime":"Ravne na Koroškem","tip":"N"},
{ "id":"11027296","ime":"Ribnica","tip":"N"},
{ "id":"11027300","ime":"Rogatec","tip":"N"},
{ "id":"11027318","ime":"Rogašovci","tip":"N"},
{ "id":"11027326","ime":"Rogaška Slatina","tip":"N"},
{ "id":"11027334","ime":"Ruše","tip":"N"},
{ "id":"11027342","ime":"Semič","tip":"N"},
{ "id":"11027369","ime":"Sevnica","tip":"N"},
{ "id":"11027377","ime":"Sežana","tip":"N"},
{ "id":"11027385","ime":"Slovenj Gradec","tip":"D"},
{ "id":"11027393","ime":"Slovenska Bistrica","tip":"N"},
{ "id":"11027407","ime":"Slovenske Konjice","tip":"N"},
{ "id":"11027415","ime":"Starše","tip":"N"},
{ "id":"11027423","ime":"Sveti Jurij ob Ščavnici","tip":"N"},
{ "id":"11027431","ime":"Šenčur","tip":"N"},
{ "id":"11027440","ime":"Šentilj","tip":"N"},
{ "id":"11027458","ime":"Šentjernej","tip":"N"},
{ "id":"11027466","ime":"Šentjur","tip":"N"},
{ "id":"11027474","ime":"Škocjan","tip":"N"},
{ "id":"11027482","ime":"Škofja Loka","tip":"N"},
{ "id":"11027504","ime":"Škofljica","tip":"N"},
{ "id":"11027512","ime":"Šmarje pri Jelšah","tip":"N"},
{ "id":"11027539","ime":"Šmartno ob Paki","tip":"N"},
{ "id":"11027547","ime":"Šoštanj","tip":"N"},
{ "id":"11027555","ime":"Štore","tip":"N"},
{ "id":"11027563","ime":"Tolmin","tip":"N"},
{ "id":"11027571","ime":"Trbovlje","tip":"N"},
{ "id":"11027580","ime":"Trebnje","tip":"N"},
{ "id":"11027598","ime":"Tržič","tip":"N"},
{ "id":"11027601","ime":"Turnišče","tip":"N"},
{ "id":"11027610","ime":"Velenje","tip":"D"},
{ "id":"11027628","ime":"Velike Lašče","tip":"N"},
{ "id":"11027636","ime":"Vipava","tip":"N"},
{ "id":"11027644","ime":"Vodice","tip":"N"},
{ "id":"11027652","ime":"Vrhnika","tip":"N"},
{ "id":"11027679","ime":"Zagorje ob Savi","tip":"N"},
{ "id":"11027687","ime":"Zreče","tip":"N"},
{ "id":"11027695","ime":"Žiri","tip":"N"},
{ "id":"11027709","ime":"Hrpelje-Kozina","tip":"N"},
{ "id":"11027717","ime":"Ilirska Bistrica","tip":"N"},
{ "id":"11027725","ime":"Jesenice","tip":"N"},
{ "id":"11027733","ime":"Kamnik","tip":"N"},
{ "id":"11027741","ime":"Kidričevo","tip":"N"},
{ "id":"11027750","ime":"Kobilje","tip":"N"},
{ "id":"11027768","ime":"Komen","tip":"N"},
{ "id":"11027776","ime":"Koper","tip":"D"},
{ "id":"11027784","ime":"Kranj","tip":"D"},
{ "id":"11027792","ime":"Kranjska Gora","tip":"N"},
{ "id":"11027806","ime":"Kuzma","tip":"N"},
{ "id":"11027814","ime":"Laško","tip":"N"},
{ "id":"11027822","ime":"Lendava","tip":"N"},
{ "id":"11027849","ime":"Ljubljana","tip":"D"},
{ "id":"11027857","ime":"Ljutomer","tip":"N"},
{ "id":"11027865","ime":"Loška dolina","tip":"N"},
{ "id":"11027873","ime":"Lukovica","tip":"N"},
{ "id":"11027881","ime":"Maribor","tip":"D"},
{ "id":"11027890","ime":"Medvode","tip":"N"},
{ "id":"11027903","ime":"Metlika","tip":"N"},
{ "id":"11027911","ime":"Miren-Kostanjevica","tip":"N"},
{ "id":"11027920","ime":"Mozirje","tip":"N"},
{ "id":"11027938","ime":"Muta","tip":"N"},
{ "id":"11027946","ime":"Naklo","tip":"N"},
{ "id":"11027954","ime":"Nazarje","tip":"N"},
{ "id":"11027962","ime":"Novo mesto","tip":"D"},
{ "id":"11027989","ime":"Osilnica","tip":"N"},
{ "id":"11027997","ime":"Piran","tip":"N"},
{ "id":"11028004","ime":"Pivka","tip":"N"},
{ "id":"11028012","ime":"Podvelka","tip":"N"},
{ "id":"11028039","ime":"Ptuj","tip":"D"},
{ "id":"11028047","ime":"Puconci","tip":"N"},
{ "id":"11028055","ime":"Radeče","tip":"N"},
{ "id":"11028063","ime":"Videm","tip":"N"},
{ "id":"11028071","ime":"Vitanje","tip":"N"},
{ "id":"11028080","ime":"Vojnik","tip":"N"},
{ "id":"11028098","ime":"Vuzenica","tip":"N"},
{ "id":"11028101","ime":"Zavrč","tip":"N"},
{ "id":"11028128","ime":"Železniki","tip":"N"},
{ "id":"21427624","ime":"Benedikt","tip":"N"},
{ "id":"21427632","ime":"Bistrica ob Sotli","tip":"N"},
{ "id":"21427659","ime":"Bloke","tip":"N"},
{ "id":"21427667","ime":"Braslovče","tip":"N"},
{ "id":"21427675","ime":"Cankova","tip":"N"},
{ "id":"21427683","ime":"Cerkvenjak","tip":"N"},
{ "id":"21427691","ime":"Dobje","tip":"N"},
{ "id":"21427705","ime":"Dobrna","tip":"N"},
{ "id":"21427713","ime":"Dobrovnik","tip":"N"},
{ "id":"21427721","ime":"Dolenjske Toplice","tip":"N"},
{ "id":"21427730","ime":"Grad","tip":"N"},
{ "id":"21427748","ime":"Hajdina","tip":"N"},
{ "id":"21427756","ime":"Hoče-Slivnica","tip":"N"},
{ "id":"21427764","ime":"Hodoš","tip":"N"},
{ "id":"21427772","ime":"Horjul","tip":"N"},
{ "id":"21427799","ime":"Jezersko","tip":"N"},
{ "id":"21427802","ime":"Komenda","tip":"N"},
{ "id":"21427829","ime":"Kostel","tip":"N"},
{ "id":"21427837","ime":"Križevci","tip":"N"},
{ "id":"21427845","ime":"Lovrenc na Pohorju","tip":"N"},
{ "id":"21427853","ime":"Mirna Peč","tip":"N"},
{ "id":"21427861","ime":"Oplotnica","tip":"N"},
{ "id":"21427870","ime":"Podlehnik","tip":"N"},
{ "id":"21427888","ime":"Prebold","tip":"N"},
{ "id":"21427896","ime":"Razkrižje","tip":"N"},
{ "id":"21427900","ime":"Selnica ob Dravi","tip":"N"},
{ "id":"21427918","ime":"Solčava","tip":"N"},
{ "id":"21427926","ime":"Šempeter-Vrtojba","tip":"N"},
{ "id":"21427934","ime":"Tabor","tip":"N"},
{ "id":"21427942","ime":"Trnovska vas","tip":"N"},
{ "id":"21427969","ime":"Trzin","tip":"N"},
{ "id":"21427977","ime":"Veržej","tip":"N"},
{ "id":"21427985","ime":"Žetale","tip":"N"},
{ "id":"21427993","ime":"Žužemberk","tip":"N"},
{ "id":"21428019","ime":"Markovci","tip":"N"},
{ "id":"21428027","ime":"Miklavž na Dravskem polju","tip":"N"},
{ "id":"21428035","ime":"Polzela","tip":"N"},
{ "id":"21428043","ime":"Prevalje","tip":"N"},
{ "id":"21428051","ime":"Ribnica na Pohorju","tip":"N"},
{ "id":"21428060","ime":"Sodražica","tip":"N"},
{ "id":"21428078","ime":"Sveta Ana","tip":"N"},
{ "id":"21428086","ime":"Sveti Andraž v Slov. goricah","tip":"N"},
{ "id":"21428094","ime":"Velika Polana","tip":"N"},
{ "id":"21428108","ime":"Vransko","tip":"N"},
{ "id":"21428116","ime":"Žirovnica","tip":"N"},
{ "id":"21428124","ime":"Žalec","tip":"N"},
{ "id":"21428264","ime":"Šmartno pri Litiji","tip":"N"},
{ "id":"21433632","ime":"Središče ob Dravi","tip":"N"},
{ "id":"21433659","ime":"Straža","tip":"N"},
{ "id":"21433667","ime":"Sveta Trojica v Slovenskih gor","tip":"N"},
{ "id":"21433675","ime":"Sveti Tomaž","tip":"N"},
{ "id":"21433683","ime":"Šmarješke Toplice","tip":"N"},
{ "id":"21436437","ime":"Apače","tip":"N"},
{ "id":"21436445","ime":"Cirkulane","tip":"N"},
{ "id":"21436453","ime":"Kostanjevica na Krki","tip":"N"},
{ "id":"21436461","ime":"Makole","tip":"N"},
{ "id":"21436470","ime":"Mokronog-Trebelno","tip":"N"},
{ "id":"21436488","ime":"Poljčane","tip":"N"},
{ "id":"24063453","ime":"Renče-Vogrsko","tip":"N"},
{ "id":"24063461","ime":"Gorje","tip":"N"},
{ "id":"24063470","ime":"Log-Dragomer","tip":"N"},
{ "id":"24063488","ime":"Rečica ob Savinji","tip":"N"},
{ "id":"24063496","ime":"Sveti Jurij v Slovenskih goric","tip":"N"},
{ "id":"24063500","ime":"Šentrupert","tip":"N"},
{ "id":"24063518","ime":"Mirna","tip":"N"},
{ "id":"24063526","ime":"Ankaran","tip":"N"}
]